[gd_scene load_steps=3 format=2]

[ext_resource path="res://Assets/AEG_CIV_attack_1.png" type="Texture" id=1]

[sub_resource type="RectangleShape2D" id=1]
extents = Vector2( 121.05, 52.4638 )

[node name="Node2D" type="Node2D"]

[node name="Sprite" type="Sprite" parent="."]
texture = ExtResource( 1 )

[node name="RigidBody2D" type="RigidBody2D" parent="."]

[node name="CollisionShape2D" type="CollisionShape2D" parent="RigidBody2D"]
position = Vector2( 3.88908, 3.75736 )
shape = SubResource( 1 )
